module .

require (
	github.com/labstack/echo v3.3.10+incompatible // indirect
	github.com/labstack/echo/v4 v4.0.0 // indirect
	github.com/mattn/go-colorable v0.1.1 // indirect
	github.com/mattn/go-isatty v0.0.7 // indirect
	github.com/speps/go-hashids v2.0.0+incompatible // indirect
	github.com/valyala/fasttemplate v1.0.0 // indirect
	golang.org/x/crypto v0.0.0-20190313024323-a1f597ede03a // indirect
	golang.org/x/net v0.0.0-20190313082753-5c2c250b6a70 // indirect
)
